<svg width="42" height="42" viewBox="0 0 42 42" fill="none" xmlns="http://www.w3.org/2000/svg">
<rect width="42" height="42" rx="7" fill="url(#paint0_linear)"/>
<path d="M24.125 14.375C24.125 15.8247 22.9497 17 21.5 17C20.0503 17 18.875 15.8247 18.875 14.375C18.875 12.9253 20.0503 11.75 21.5 11.75C22.9497 11.75 24.125 12.9253 24.125 14.375Z" fill="white"/>
<path fill-rule="evenodd" clip-rule="evenodd" d="M32 18.115C32 18.3787 31.7865 18.5909 31.5227 18.5909H30.0909V27.1822C31.1438 27.1822 32 28.0383 32 29.0911V30.5228C32 30.7866 31.7865 31 31.5227 31H11.4773C11.2135 31 11 30.7865 11 30.5228V29.0911C11 28.0383 11.8562 27.1822 12.9091 27.1822V18.5909H11.4773C11.2135 18.5909 11 18.3787 11 18.115V16.2061C11 16.0378 11.0885 15.8817 11.2335 15.7959L20.5692 10.2506C21.183 9.91267 21.8374 9.92247 22.4177 10.244L31.7665 15.7959C31.9114 15.8817 32 16.0378 32 16.2061V18.115ZM16.7273 27.1818H19.5909V18.5909H16.7273V27.1818ZM21.4991 16.6842C20.4457 16.6842 19.589 15.8276 19.589 14.7744C19.589 13.7212 20.4457 12.8646 21.4991 12.8646C22.5524 12.8646 23.4091 13.7212 23.4091 14.7744C23.4091 15.8276 22.5524 16.6842 21.4991 16.6842ZM23.4091 27.1818H26.2727V18.5909H23.4091V27.1818Z" fill="white"/>
<defs>
<linearGradient id="paint0_linear" x1="16.25" y1="59" x2="58.25" y2="26.5" gradientUnits="userSpaceOnUse">
<stop stop-color="#7275F6"/>
<stop offset="1" stop-color="#6A9EF6"/>
</linearGradient>
</defs>
</svg>
