<svg width="20" height="26" viewBox="0 0 20 26" fill="none" xmlns="http://www.w3.org/2000/svg">
<mask id="path-1-outside-1" maskUnits="userSpaceOnUse" x="6.5" y="6" width="7" height="7" fill="black">
<rect fill="white" x="6.5" y="6" width="7" height="7"/>
<path fill-rule="evenodd" clip-rule="evenodd" d="M9.99998 12C8.62111 12 7.5 10.8784 7.5 9.49998C7.5 8.12158 8.62106 7 9.99998 7C11.3789 7 12.5 8.12158 12.5 9.49998C12.5 10.8784 11.3789 12 9.99998 12ZM11.5 9.49998C11.5 8.67283 10.8271 7.99998 9.99998 7.99998C9.17283 7.99998 8.49998 8.67287 8.49998 9.49998C8.49998 10.3271 9.17283 11 9.99998 11C10.8271 11 11.5 10.3271 11.5 9.49998Z"/>
</mask>
<path fill-rule="evenodd" clip-rule="evenodd" d="M9.99998 12C8.62111 12 7.5 10.8784 7.5 9.49998C7.5 8.12158 8.62106 7 9.99998 7C11.3789 7 12.5 8.12158 12.5 9.49998C12.5 10.8784 11.3789 12 9.99998 12ZM11.5 9.49998C11.5 8.67283 10.8271 7.99998 9.99998 7.99998C9.17283 7.99998 8.49998 8.67287 8.49998 9.49998C8.49998 10.3271 9.17283 11 9.99998 11C10.8271 11 11.5 10.3271 11.5 9.49998Z" fill="#6E8BF6"/>
<path d="M7.3 9.49998C7.3 10.9888 8.51063 12.2 9.99998 12.2V11.8C8.73159 11.8 7.7 10.768 7.7 9.49998H7.3ZM9.99998 6.8C8.51058 6.8 7.3 8.01115 7.3 9.49998H7.7C7.7 8.23201 8.73154 7.2 9.99998 7.2V6.8ZM12.7 9.49998C12.7 8.01115 11.4894 6.8 9.99998 6.8V7.2C11.2684 7.2 12.3 8.23201 12.3 9.49998H12.7ZM9.99998 12.2C11.4894 12.2 12.7 10.9888 12.7 9.49998H12.3C12.3 10.768 11.2684 11.8 9.99998 11.8V12.2ZM9.99998 8.19998C10.7167 8.19998 11.3 8.78329 11.3 9.49998H11.7C11.7 8.56237 10.9376 7.79998 9.99998 7.79998V8.19998ZM8.69998 9.49998C8.69998 8.78332 9.28329 8.19998 9.99998 8.19998V7.79998C9.06237 7.79998 8.29998 8.56242 8.29998 9.49998H8.69998ZM9.99998 10.8C9.28329 10.8 8.69998 10.2167 8.69998 9.49998H8.29998C8.29998 10.4376 9.06237 11.2 9.99998 11.2V10.8ZM11.3 9.49998C11.3 10.2167 10.7167 10.8 9.99998 10.8V11.2C10.9376 11.2 11.7 10.4376 11.7 9.49998H11.3Z" fill="#6E8BF6" mask="url(#path-1-outside-1)"/>
<mask id="path-3-outside-2" maskUnits="userSpaceOnUse" x="4.5" y="11.5" width="11" height="6" fill="black">
<rect fill="white" x="4.5" y="11.5" width="11" height="6"/>
<path fill-rule="evenodd" clip-rule="evenodd" d="M5.5 15.5234C5.5 14.688 5.91405 13.9248 6.58009 13.5318C7.37889 13.061 8.62108 12.5 10 12.5C11.3789 12.5 12.6211 13.061 13.4199 13.5317C14.0859 13.9248 14.5 14.688 14.5 15.5234V15.8437C14.5 16.4814 14.0195 17 13.4287 17H6.57128C5.98047 17 5.5 16.4814 5.5 15.8437V15.5234ZM13.5 15.8437V15.5234C13.5 15.0474 13.2695 14.604 12.9121 14.393C12.2207 13.9858 11.1543 13.5 10 13.5C8.8457 13.5 7.7793 13.9858 7.08789 14.393C6.73047 14.604 6.49998 15.0474 6.49998 15.5234V15.8437C6.49998 15.9477 6.55956 16 6.57128 16H13.4287C13.4404 16 13.5 15.9478 13.5 15.8437Z"/>
</mask>
<path fill-rule="evenodd" clip-rule="evenodd" d="M5.5 15.5234C5.5 14.688 5.91405 13.9248 6.58009 13.5318C7.37889 13.061 8.62108 12.5 10 12.5C11.3789 12.5 12.6211 13.061 13.4199 13.5317C14.0859 13.9248 14.5 14.688 14.5 15.5234V15.8437C14.5 16.4814 14.0195 17 13.4287 17H6.57128C5.98047 17 5.5 16.4814 5.5 15.8437V15.5234ZM13.5 15.8437V15.5234C13.5 15.0474 13.2695 14.604 12.9121 14.393C12.2207 13.9858 11.1543 13.5 10 13.5C8.8457 13.5 7.7793 13.9858 7.08789 14.393C6.73047 14.604 6.49998 15.0474 6.49998 15.5234V15.8437C6.49998 15.9477 6.55956 16 6.57128 16H13.4287C13.4404 16 13.5 15.9478 13.5 15.8437Z" fill="#6E8BF6"/>
<path d="M6.58009 13.5318L6.47855 13.3595L6.47845 13.3595L6.58009 13.5318ZM13.4199 13.5317L13.5216 13.3595L13.5214 13.3594L13.4199 13.5317ZM12.9121 14.393L13.0138 14.2208L13.0136 14.2207L12.9121 14.393ZM7.08789 14.393L6.98639 14.2207L6.98624 14.2208L7.08789 14.393ZM6.47845 13.3595C5.74578 13.7919 5.3 14.6241 5.3 15.5234H5.7C5.7 14.7519 6.08232 14.0577 6.68173 13.704L6.47845 13.3595ZM10 12.3C8.56998 12.3 7.2914 12.8805 6.47855 13.3595L6.68163 13.7041C7.46638 13.2416 8.67218 12.7 10 12.7V12.3ZM13.5214 13.3594C12.7085 12.8804 11.43 12.3 10 12.3V12.7C11.3278 12.7 12.5336 13.2416 13.3184 13.704L13.5214 13.3594ZM14.7 15.5234C14.7 14.6241 14.2542 13.7919 13.5216 13.3595L13.3183 13.704C13.9177 14.0577 14.3 14.7519 14.3 15.5234H14.7ZM14.7 15.8437V15.5234H14.3V15.8437H14.7ZM13.4287 17.2C14.1441 17.2 14.7 16.5772 14.7 15.8437H14.3C14.3 16.3856 13.895 16.8 13.4287 16.8V17.2ZM6.57128 17.2H13.4287V16.8H6.57128V17.2ZM5.3 15.8437C5.3 16.5772 5.85591 17.2 6.57128 17.2V16.8C6.10503 16.8 5.7 16.3856 5.7 15.8437H5.3ZM5.3 15.5234V15.8437H5.7V15.5234H5.3ZM13.3 15.5234V15.8437H13.7V15.5234H13.3ZM12.8104 14.5653C13.0969 14.7344 13.3 15.1057 13.3 15.5234H13.7C13.7 14.9891 13.4422 14.4737 13.0138 14.2208L12.8104 14.5653ZM10 13.7C11.1023 13.7 12.1319 14.1657 12.8106 14.5654L13.0136 14.2207C12.3095 13.806 11.2063 13.3 10 13.3V13.7ZM7.18939 14.5654C7.86809 14.1656 8.89773 13.7 10 13.7V13.3C8.79367 13.3 7.69051 13.806 6.98639 14.2207L7.18939 14.5654ZM6.69998 15.5234C6.69998 15.1057 6.9031 14.7343 7.18954 14.5653L6.98624 14.2208C6.55784 14.4736 6.29998 14.9891 6.29998 15.5234H6.69998ZM6.69998 15.8437V15.5234H6.29998V15.8437H6.69998ZM6.57128 15.8C6.60421 15.8 6.62877 15.8083 6.63924 15.8123C6.65183 15.817 6.66124 15.8222 6.66691 15.8255C6.6783 15.8323 6.68564 15.8385 6.68915 15.8417C6.69668 15.8485 6.69979 15.8532 6.70063 15.8545C6.70322 15.8586 6.69998 15.8562 6.69998 15.8437H6.29998C6.29998 15.9353 6.32654 16.0109 6.36184 16.0672C6.37905 16.0946 6.39925 16.1189 6.42125 16.1387C6.43198 16.1484 6.44591 16.1595 6.4628 16.1695C6.47044 16.1741 6.51248 16.2 6.57128 16.2V15.8ZM13.4287 15.8H6.57128V16.2H13.4287V15.8ZM13.3 15.8437C13.3 15.8562 13.2968 15.8587 13.2994 15.8545C13.3002 15.8532 13.3034 15.8484 13.3109 15.8416C13.3144 15.8385 13.3218 15.8322 13.3331 15.8255C13.3388 15.8221 13.3482 15.817 13.3608 15.8123C13.3713 15.8083 13.3958 15.8 13.4287 15.8V16.2C13.4875 16.2 13.5295 16.1741 13.5372 16.1696C13.554 16.1595 13.568 16.1484 13.5787 16.1387C13.6007 16.1189 13.6209 16.0946 13.6381 16.0672C13.6735 16.011 13.7 15.9353 13.7 15.8437H13.3Z" fill="#6E8BF6" mask="url(#path-3-outside-2)"/>
<mask id="path-5-outside-3" maskUnits="userSpaceOnUse" x="0" y="0" width="20" height="26" fill="black">
<rect fill="white" width="20" height="26"/>
<path fill-rule="evenodd" clip-rule="evenodd" d="M10.1655 1.02855L18.6641 4.02784C18.8652 4.09863 19 4.28852 19 4.50184L18.9971 10.5004C18.9971 18.2648 17.8479 21.1025 10.2251 24.9458C10.1538 24.982 10.0757 25 9.99855 25C9.92139 25 9.8433 24.982 9.772 24.9458C2.14923 21.1024 1 18.2647 1 10.5004V4.50184C1 4.28852 1.13181 4.09863 1.33295 4.02784L9.83158 1.02855C9.93897 0.990484 10.0581 0.990484 10.1655 1.02855ZM10.0015 23.9971C17.0501 20.4037 18.0028 17.9338 18.0028 10.5005V4.85725L9.99855 2.03566L2.00017 4.85725V10.5005C2.00017 17.9338 2.95281 20.4037 10.0015 23.9971Z"/>
</mask>
<path fill-rule="evenodd" clip-rule="evenodd" d="M10.1655 1.02855L18.6641 4.02784C18.8652 4.09863 19 4.28852 19 4.50184L18.9971 10.5004C18.9971 18.2648 17.8479 21.1025 10.2251 24.9458C10.1538 24.982 10.0757 25 9.99855 25C9.92139 25 9.8433 24.982 9.772 24.9458C2.14923 21.1024 1 18.2647 1 10.5004V4.50184C1 4.28852 1.13181 4.09863 1.33295 4.02784L9.83158 1.02855C9.93897 0.990484 10.0581 0.990484 10.1655 1.02855ZM10.0015 23.9971C17.0501 20.4037 18.0028 17.9338 18.0028 10.5005V4.85725L9.99855 2.03566L2.00017 4.85725V10.5005C2.00017 17.9338 2.95281 20.4037 10.0015 23.9971Z" fill="#6E8BF6"/>
<path d="M18.6641 4.02784L18.5975 4.21644L18.5977 4.21649L18.6641 4.02784ZM10.1655 1.02855L10.0987 1.21706L10.099 1.21715L10.1655 1.02855ZM19 4.50184L19.2 4.50194V4.50184H19ZM18.9971 10.5004L18.7971 10.5003V10.5004H18.9971ZM10.2251 24.9458L10.135 24.7672L10.1345 24.7675L10.2251 24.9458ZM9.772 24.9458L9.86254 24.7675L9.86204 24.7672L9.772 24.9458ZM1.33295 4.02784L1.39935 4.2165L1.39951 4.21644L1.33295 4.02784ZM9.83158 1.02855L9.89814 1.21715L9.89839 1.21706L9.83158 1.02855ZM10.0015 23.9971L9.91066 24.1753L10.0015 24.2216L10.0923 24.1753L10.0015 23.9971ZM18.0028 4.85725H18.2028V4.71569L18.0693 4.66863L18.0028 4.85725ZM9.99855 2.03566L10.065 1.84704L9.99853 1.82359L9.93202 1.84705L9.99855 2.03566ZM2.00017 4.85725L1.93363 4.66864L1.80017 4.71572V4.85725H2.00017ZM18.7307 3.83924L10.2321 0.839947L10.099 1.21715L18.5975 4.21644L18.7307 3.83924ZM19.2 4.50184C19.2 4.20347 19.0115 3.93809 18.7305 3.83919L18.5977 4.21649C18.7189 4.25917 18.8 4.37357 18.8 4.50184H19.2ZM19.1971 10.5005L19.2 4.50194L18.8 4.50174L18.7971 10.5003L19.1971 10.5005ZM10.3151 25.1244C14.1352 23.1984 16.3727 21.5062 17.6431 19.2931C18.912 17.0827 19.1971 14.3841 19.1971 10.5004H18.7971C18.7971 14.3811 18.5076 16.9836 17.2962 19.0939C16.0863 21.2016 13.9378 22.8499 10.135 24.7672L10.3151 25.1244ZM9.99855 25.2C10.1066 25.2 10.2158 25.1748 10.3156 25.1241L10.1345 24.7675C10.0918 24.7892 10.0448 24.8 9.99855 24.8V25.2ZM9.68146 25.1241C9.78135 25.1748 9.89053 25.2 9.99855 25.2V24.8C9.95225 24.8 9.90525 24.7892 9.86254 24.7675L9.68146 25.1241ZM0.8 10.5004C0.8 14.3841 1.08516 17.0826 2.35401 19.293C3.62441 21.5061 5.86195 23.1983 9.68196 25.1244L9.86204 24.7672C6.05928 22.8499 3.91082 21.2016 2.70091 19.0939C1.48946 16.9835 1.2 14.3811 1.2 10.5004H0.8ZM0.8 4.50184V10.5004H1.2V4.50184H0.8ZM1.26656 3.83918C0.9837 3.93873 0.8 4.20544 0.8 4.50184H1.2C1.2 4.3716 1.27992 4.25853 1.39935 4.2165L1.26656 3.83918ZM9.76502 0.839947L1.26639 3.83924L1.39951 4.21644L9.89814 1.21715L9.76502 0.839947ZM10.2323 0.840037C10.0817 0.786654 9.91538 0.786654 9.76477 0.840037L9.89839 1.21706C9.96256 1.19431 10.0345 1.19431 10.0987 1.21706L10.2323 0.840037ZM17.8028 10.5005C17.8028 14.2184 17.562 16.6454 16.4709 18.5909C15.3821 20.5325 13.4278 22.0259 9.91066 23.8189L10.0923 24.1753C13.6238 22.3749 15.6701 20.8367 16.8198 18.7866C17.9673 16.7405 18.2028 14.2159 18.2028 10.5005H17.8028ZM17.8028 4.85725V10.5005H18.2028V4.85725H17.8028ZM9.93206 2.22428L17.9363 5.04587L18.0693 4.66863L10.065 1.84704L9.93206 2.22428ZM2.06671 5.04586L10.0651 2.22427L9.93202 1.84705L1.93363 4.66864L2.06671 5.04586ZM2.20017 10.5005V4.85725H1.80017V10.5005H2.20017ZM10.0923 23.8189C6.57519 22.0259 4.62083 20.5325 3.53202 18.5909C2.44098 16.6454 2.20017 14.2184 2.20017 10.5005H1.80017C1.80017 14.2159 2.03568 16.7405 3.18313 18.7866C4.33281 20.8367 6.37912 22.3749 9.91066 24.1753L10.0923 23.8189Z" fill="#6E8BF6" mask="url(#path-5-outside-3)"/>
</svg>
