<svg width="22" height="17" viewBox="0 0 22 17" fill="none" xmlns="http://www.w3.org/2000/svg">
<mask id="path-1-outside-1" maskUnits="userSpaceOnUse" x="0" y="0" width="22" height="17" fill="black">
<rect fill="white" width="22" height="17"/>
<path fill-rule="evenodd" clip-rule="evenodd" d="M19.3333 1H2.66668C1.74746 1 1 1.74746 1 2.66668V14.3334C1 15.2525 1.74746 16 2.66668 16H19.3334C20.2525 16 21 15.2525 21 14.3333V2.66668C21 1.74746 20.2525 1 19.3333 1ZM2.66668 1.83332H19.3334C19.3761 1.83332 19.4153 1.84414 19.4545 1.85499C19.4717 1.85974 19.4889 1.8645 19.5065 1.86836C18.0636 3.18895 13.279 7.56598 11.6047 9.07453C11.4737 9.19254 11.2625 9.33332 11 9.33332C10.7376 9.33332 10.5264 9.19254 10.395 9.07414C8.72078 7.56582 3.93598 3.18855 2.49328 1.86844C2.51094 1.86457 2.52827 1.85978 2.54558 1.855C2.58486 1.84414 2.62403 1.83332 2.66668 1.83332ZM1.83332 2.66668V14.3333C1.83332 14.3978 1.85037 14.4567 1.86744 14.5158L1.87734 14.5505C2.99051 13.489 6.3298 10.3231 8.48746 8.46969C6.32277 6.50121 2.98434 3.44715 1.87996 2.43637L1.87379 2.45709C1.85358 2.52476 1.83332 2.5926 1.83332 2.66668ZM19.3333 15.1667H2.66668C2.61779 15.1667 2.57288 15.1542 2.52785 15.1416L2.52782 15.1416C2.51156 15.1371 2.49528 15.1326 2.47879 15.1286C3.62906 14.0321 6.98961 10.8479 9.10934 9.03453C9.38566 9.2852 9.63809 9.51375 9.83707 9.69305C10.1805 10.0031 10.5825 10.1667 11 10.1667C11.4175 10.1667 11.8195 10.0031 12.1625 9.69344C12.3616 9.51406 12.6142 9.28531 12.8907 9.03453C15.0105 10.8477 18.3706 14.0316 19.5212 15.1286C19.5047 15.1326 19.4885 15.1371 19.4722 15.1416L19.4722 15.1416C19.4272 15.1542 19.3823 15.1667 19.3333 15.1667ZM20.1327 14.5155C20.1497 14.4565 20.1667 14.3976 20.1667 14.3333V2.66664C20.1667 2.59234 20.1463 2.52428 20.126 2.45641C20.124 2.4497 20.122 2.443 20.12 2.43629C19.0153 3.44746 15.6773 6.50125 13.5126 8.46973C15.6702 10.3229 19.0091 13.4885 20.1227 14.5505C20.1259 14.5388 20.1293 14.5271 20.1327 14.5155Z"/>
</mask>
<path fill-rule="evenodd" clip-rule="evenodd" d="M19.3333 1H2.66668C1.74746 1 1 1.74746 1 2.66668V14.3334C1 15.2525 1.74746 16 2.66668 16H19.3334C20.2525 16 21 15.2525 21 14.3333V2.66668C21 1.74746 20.2525 1 19.3333 1ZM2.66668 1.83332H19.3334C19.3761 1.83332 19.4153 1.84414 19.4545 1.85499C19.4717 1.85974 19.4889 1.8645 19.5065 1.86836C18.0636 3.18895 13.279 7.56598 11.6047 9.07453C11.4737 9.19254 11.2625 9.33332 11 9.33332C10.7376 9.33332 10.5264 9.19254 10.395 9.07414C8.72078 7.56582 3.93598 3.18855 2.49328 1.86844C2.51094 1.86457 2.52827 1.85978 2.54558 1.855C2.58486 1.84414 2.62403 1.83332 2.66668 1.83332ZM1.83332 2.66668V14.3333C1.83332 14.3978 1.85037 14.4567 1.86744 14.5158L1.87734 14.5505C2.99051 13.489 6.3298 10.3231 8.48746 8.46969C6.32277 6.50121 2.98434 3.44715 1.87996 2.43637L1.87379 2.45709C1.85358 2.52476 1.83332 2.5926 1.83332 2.66668ZM19.3333 15.1667H2.66668C2.61779 15.1667 2.57288 15.1542 2.52785 15.1416L2.52782 15.1416C2.51156 15.1371 2.49528 15.1326 2.47879 15.1286C3.62906 14.0321 6.98961 10.8479 9.10934 9.03453C9.38566 9.2852 9.63809 9.51375 9.83707 9.69305C10.1805 10.0031 10.5825 10.1667 11 10.1667C11.4175 10.1667 11.8195 10.0031 12.1625 9.69344C12.3616 9.51406 12.6142 9.28531 12.8907 9.03453C15.0105 10.8477 18.3706 14.0316 19.5212 15.1286C19.5047 15.1326 19.4885 15.1371 19.4722 15.1416L19.4722 15.1416C19.4272 15.1542 19.3823 15.1667 19.3333 15.1667ZM20.1327 14.5155C20.1497 14.4565 20.1667 14.3976 20.1667 14.3333V2.66664C20.1667 2.59234 20.1463 2.52428 20.126 2.45641C20.124 2.4497 20.122 2.443 20.12 2.43629C19.0153 3.44746 15.6773 6.50125 13.5126 8.46973C15.6702 10.3229 19.0091 13.4885 20.1227 14.5505C20.1259 14.5388 20.1293 14.5271 20.1327 14.5155Z" fill="#6E8BF6"/>
<path d="M19.4545 1.85499L19.5078 1.66221L19.5078 1.66221L19.4545 1.85499ZM19.5065 1.86836L19.6415 2.0159L19.9258 1.75572L19.5494 1.67302L19.5065 1.86836ZM11.6047 9.07453L11.7386 9.22313L11.7386 9.22311L11.6047 9.07453ZM10.395 9.07414L10.2611 9.22273L10.2611 9.22274L10.395 9.07414ZM2.49328 1.86844L2.45046 1.67308L2.07375 1.75565L2.35827 2.01599L2.49328 1.86844ZM2.54558 1.855L2.59885 2.04777L2.54558 1.855ZM1.86744 14.5158L2.05978 14.4609L2.05957 14.4602L1.86744 14.5158ZM1.87734 14.5505L1.68501 14.6053L1.77579 14.9237L2.01537 14.6952L1.87734 14.5505ZM8.48746 8.46969L8.61778 8.6214L8.78943 8.47396L8.62202 8.32172L8.48746 8.46969ZM1.87996 2.43637L2.01499 2.28883L1.77936 2.07318L1.68827 2.37933L1.87996 2.43637ZM1.87379 2.45709L2.06543 2.51433L2.06549 2.51413L1.87379 2.45709ZM2.52785 15.1416L2.58155 14.949L2.58048 14.9487L2.52785 15.1416ZM2.52782 15.1416L2.47412 15.3343L2.4752 15.3346L2.52782 15.1416ZM2.47879 15.1286L2.34079 14.9838L2.07478 15.2374L2.43216 15.3231L2.47879 15.1286ZM9.10934 9.03453L9.24372 8.8864L9.11322 8.76801L8.97933 8.88255L9.10934 9.03453ZM9.83707 9.69305L9.9711 9.5446L9.97095 9.54447L9.83707 9.69305ZM12.1625 9.69344L12.0286 9.54485L12.0285 9.54498L12.1625 9.69344ZM12.8907 9.03453L13.0207 8.88254L12.8868 8.76803L12.7563 8.88639L12.8907 9.03453ZM19.5212 15.1286L19.5679 15.3231L19.9251 15.2374L19.6592 14.9838L19.5212 15.1286ZM19.4722 15.1416L19.4184 14.9487L19.409 14.9519L19.4722 15.1416ZM19.4722 15.1416L19.526 15.3345L19.5355 15.3314L19.4722 15.1416ZM20.1327 14.5155L19.9405 14.46L19.9405 14.46L20.1327 14.5155ZM20.126 2.45641L20.3176 2.39904L20.3176 2.39902L20.126 2.45641ZM20.12 2.43629L20.3118 2.37947L20.2209 2.0728L19.985 2.28876L20.12 2.43629ZM13.5126 8.46973L13.378 8.32176L13.2106 8.47401L13.3823 8.62145L13.5126 8.46973ZM20.1227 14.5505L19.9847 14.6952L20.2264 14.9258L20.3155 14.6038L20.1227 14.5505ZM2.66668 1.2H19.3333V0.8H2.66668V1.2ZM1.2 2.66668C1.2 1.85792 1.85792 1.2 2.66668 1.2V0.8C1.637 0.8 0.8 1.637 0.8 2.66668H1.2ZM1.2 14.3334V2.66668H0.8V14.3334H1.2ZM2.66668 15.8C1.85791 15.8 1.2 15.142 1.2 14.3334H0.8C0.8 15.363 1.63701 16.2 2.66668 16.2V15.8ZM19.3334 15.8H2.66668V16.2H19.3334V15.8ZM20.8 14.3333C20.8 15.1421 20.142 15.8 19.3334 15.8V16.2C20.363 16.2 21.2 15.3629 21.2 14.3333H20.8ZM20.8 2.66668V14.3333H21.2V2.66668H20.8ZM19.3333 1.2C20.142 1.2 20.8 1.85792 20.8 2.66668H21.2C21.2 1.637 20.363 0.8 19.3333 0.8V1.2ZM19.3334 1.63332H2.66668V2.03332H19.3334V1.63332ZM19.5078 1.66221C19.4721 1.65236 19.4074 1.63332 19.3334 1.63332V2.03332C19.3448 2.03332 19.3584 2.03592 19.4013 2.04777L19.5078 1.66221ZM19.5494 1.67302C19.5379 1.6705 19.5258 1.6672 19.5078 1.66221L19.4013 2.04777C19.4176 2.05229 19.44 2.05851 19.4636 2.0637L19.5494 1.67302ZM11.7386 9.22311C13.4136 7.7139 18.199 3.33618 19.6415 2.0159L19.3715 1.72082C17.9282 3.04172 13.1444 7.41806 11.4708 8.92594L11.7386 9.22311ZM11 9.53332C11.3343 9.53332 11.5918 9.35532 11.7386 9.22313L11.4708 8.92593C11.3556 9.02976 11.1907 9.13332 11 9.13332V9.53332ZM10.2611 9.22274C10.4082 9.35526 10.6657 9.53332 11 9.53332V9.13332C10.8095 9.13332 10.6446 9.02982 10.5288 8.92553L10.2611 9.22274ZM2.35827 2.01599C3.80061 3.33577 8.58618 7.71375 10.2611 9.22273L10.5288 8.92555C8.85538 7.41789 4.07135 3.04133 2.62829 1.72089L2.35827 2.01599ZM2.49232 1.66222C2.47416 1.66723 2.46199 1.67055 2.45046 1.67308L2.5361 2.0638C2.55989 2.05859 2.58238 2.05232 2.59885 2.04777L2.49232 1.66222ZM2.66668 1.63332C2.5927 1.63332 2.52795 1.65237 2.49232 1.66222L2.59885 2.04777C2.64177 2.03591 2.65535 2.03332 2.66668 2.03332V1.63332ZM2.03332 14.3333V2.66668H1.63332V14.3333H2.03332ZM2.05957 14.4602C2.0414 14.3974 2.03332 14.3651 2.03332 14.3333H1.63332C1.63332 14.4305 1.65934 14.5161 1.67532 14.5713L2.05957 14.4602ZM2.06968 14.4957L2.05978 14.4609L1.67511 14.5706L1.68501 14.6053L2.06968 14.4957ZM8.35714 8.31798C6.19487 10.1753 2.85182 13.3449 1.73932 14.4058L2.01537 14.6952C3.1292 13.6331 6.46473 10.4708 8.61778 8.6214L8.35714 8.31798ZM1.74493 2.58391C2.84928 3.59466 6.18794 6.64893 8.3529 8.61766L8.62202 8.32172C6.4576 6.35349 3.1194 3.29964 2.01499 2.28883L1.74493 2.58391ZM2.06549 2.51413L2.07166 2.49341L1.68827 2.37933L1.6821 2.40006L2.06549 2.51413ZM2.03332 2.66668C2.03332 2.62638 2.04403 2.58597 2.06543 2.51433L1.68216 2.39986C1.66313 2.46356 1.63332 2.55883 1.63332 2.66668H2.03332ZM2.66668 15.3667H19.3333V14.9667H2.66668V15.3667ZM2.47415 15.3343C2.51549 15.3458 2.58619 15.3667 2.66668 15.3667V14.9667C2.64939 14.9667 2.63027 14.9626 2.58155 14.949L2.47415 15.3343ZM2.4752 15.3346L2.47523 15.3346L2.58048 14.9487L2.58044 14.9487L2.4752 15.3346ZM2.43216 15.3231C2.44451 15.326 2.45728 15.3296 2.47413 15.3343L2.58152 14.949C2.56583 14.9446 2.54605 14.9391 2.52542 14.9341L2.43216 15.3231ZM8.97933 8.88255C6.85479 10.7001 3.4903 13.8881 2.34079 14.9838L2.61679 15.2734C3.76782 14.1761 7.12443 10.9958 9.23935 9.18651L8.97933 8.88255ZM9.97095 9.54447C9.77222 9.3654 9.51999 9.13702 9.24372 8.8864L8.97496 9.18266C9.25133 9.43338 9.50396 9.6621 9.70319 9.84163L9.97095 9.54447ZM11 9.96668C10.6374 9.96668 10.282 9.82531 9.9711 9.5446L9.70304 9.8415C10.079 10.1809 10.5276 10.3667 11 10.3667V9.96668ZM12.0285 9.54498C11.718 9.82526 11.3626 9.96668 11 9.96668V10.3667C11.4724 10.3667 11.921 10.1809 12.2965 9.84189L12.0285 9.54498ZM12.7563 8.88639C12.4799 9.13714 12.2275 9.36571 12.0286 9.54485L12.2964 9.84203C12.4957 9.66241 12.7485 9.43348 13.0251 9.18267L12.7563 8.88639ZM19.6592 14.9838C18.5094 13.8876 15.1453 10.6999 13.0207 8.88254L12.7607 9.18651C14.8757 10.9956 18.2318 14.1756 19.3832 15.2734L19.6592 14.9838ZM19.526 15.3343C19.5428 15.3296 19.5555 15.326 19.5679 15.3231L19.4745 14.9341C19.4539 14.9391 19.4342 14.9446 19.4185 14.949L19.526 15.3343ZM19.5355 15.3314L19.5355 15.3314L19.409 14.9519L19.409 14.9519L19.5355 15.3314ZM19.3333 15.3667C19.4139 15.3667 19.4846 15.3458 19.526 15.3343L19.4185 14.949C19.3698 14.9625 19.3507 14.9667 19.3333 14.9667V15.3667ZM19.9667 14.3333C19.9667 14.3649 19.9586 14.3972 19.9405 14.46L20.3248 14.571C20.3407 14.5158 20.3667 14.4303 20.3667 14.3333H19.9667ZM19.9667 2.66664V14.3333H20.3667V2.66664H19.9667ZM19.9344 2.51377C19.9559 2.58564 19.9667 2.62619 19.9667 2.66664H20.3667C20.3667 2.55848 20.3367 2.46293 20.3176 2.39904L19.9344 2.51377ZM19.9282 2.49311C19.9303 2.50013 19.9324 2.5071 19.9344 2.51379L20.3176 2.39902C20.3156 2.3923 20.3137 2.38586 20.3118 2.37947L19.9282 2.49311ZM13.6472 8.6177C15.8121 6.64897 19.1504 3.59497 20.255 2.58382L19.985 2.28876C18.8802 3.29995 15.5425 6.35353 13.378 8.32176L13.6472 8.6177ZM20.2607 14.4058C19.1478 13.3444 15.8051 10.1751 13.6429 8.31801L13.3823 8.62145C15.5353 10.4706 18.8704 13.6326 19.9847 14.6952L20.2607 14.4058ZM19.9405 14.46C19.9372 14.4715 19.9335 14.4842 19.9299 14.4972L20.3155 14.6038C20.3184 14.5934 20.3214 14.5828 20.3248 14.5709L19.9405 14.46Z" fill="#6E8BF6" mask="url(#path-1-outside-1)"/>
</svg>
